2021-03-18T12:34:02.351454+00:00 app[api]: Initial release by user mathiaskun40@gmail.com
2021-03-18T12:34:02.351454+00:00 app[api]: Release v1 created by user mathiaskun40@gmail.com
2021-03-18T12:34:02.508395+00:00 app[api]: Enable Logplex by user mathiaskun40@gmail.com
2021-03-18T12:34:02.508395+00:00 app[api]: Release v2 created by user mathiaskun40@gmail.com
2021-03-18T12:35:32.000000+00:00 app[api]: Build started by user mathiaskun40@gmail.com
2021-03-18T12:35:37.000000+00:00 app[api]: Build failed -- check your build output: https://dashboard.heroku.com/apps/b81fa89f-f4e0-4def-af3e-5988f5f24f37/activity/builds/9d90ab0d-fb09-4518-b168-d7db5eeef39a
2021-03-18T12:40:22.000000+00:00 app[api]: Build started by user mathiaskun40@gmail.com
2021-03-18T12:40:27.000000+00:00 app[api]: Build failed -- check your build output: https://dashboard.heroku.com/apps/b81fa89f-f4e0-4def-af3e-5988f5f24f37/activity/builds/71fdb333-b196-4fc2-86a1-b83fb301901e
2021-03-18T12:42:28.000000+00:00 app[api]: Build started by user mathiaskun40@gmail.com
2021-03-18T12:42:32.000000+00:00 app[api]: Build failed -- check your build output: https://dashboard.heroku.com/apps/b81fa89f-f4e0-4def-af3e-5988f5f24f37/activity/builds/f0a9f4d4-985b-4c80-b36f-ac32fd114d76
2021-03-18T12:46:38.787938+00:00 app[api]: Set GRADLE_TASK config vars by user mathiaskun40@gmail.com
2021-03-18T12:46:38.787938+00:00 app[api]: Release v3 created by user mathiaskun40@gmail.com
2021-03-18T12:59:47.000000+00:00 app[api]: Build started by user mathiaskun40@gmail.com
2021-03-18T12:59:51.000000+00:00 app[api]: Build failed -- check your build output: https://dashboard.heroku.com/apps/b81fa89f-f4e0-4def-af3e-5988f5f24f37/activity/builds/20f106ed-7311-45c7-901b-03bec8d68d38
2021-03-18T13:03:41.000000+00:00 app[api]: Build started by user mathiaskun40@gmail.com
2021-03-18T13:03:45.000000+00:00 app[api]: Build failed -- check your build output: https://dashboard.heroku.com/apps/b81fa89f-f4e0-4def-af3e-5988f5f24f37/activity/builds/6a1cbc31-baca-4de4-baf7-5dff6830738d
2021-03-18T13:09:43.000000+00:00 app[api]: Build started by user mathiaskun40@gmail.com
2021-03-18T13:09:47.000000+00:00 app[api]: Build failed -- check your build output: https://dashboard.heroku.com/apps/b81fa89f-f4e0-4def-af3e-5988f5f24f37/activity/builds/d65d6916-6139-4d74-91f1-b948a41a080d
2021-03-18T13:22:22.000000+00:00 app[api]: Build started by user mathiaskun40@gmail.com
2021-03-18T13:24:02.000000+00:00 app[api]: Build failed -- check your build output: https://dashboard.heroku.com/apps/b81fa89f-f4e0-4def-af3e-5988f5f24f37/activity/builds/f129a327-d3d6-40f8-80d2-a2c0aa6f64c8
2021-03-18T13:27:08.000000+00:00 app[api]: Build started by user mathiaskun40@gmail.com
2021-03-18T13:28:56.000000+00:00 app[api]: Build failed -- check your build output: https://dashboard.heroku.com/apps/b81fa89f-f4e0-4def-af3e-5988f5f24f37/activity/builds/7ef9c4fb-7170-4a32-8c32-55994acdff72
2021-03-18T13:33:28.000000+00:00 app[api]: Build started by user mathiaskun40@gmail.com
2021-03-18T13:36:31.782229+00:00 app[api]: Deploy 93cbc612 by user mathiaskun40@gmail.com
2021-03-18T13:36:31.782229+00:00 app[api]: Release v4 created by user mathiaskun40@gmail.com
2021-03-18T13:36:31.793790+00:00 app[api]: Scaled to web@1:Free by user mathiaskun40@gmail.com
2021-03-18T13:36:43.000976+00:00 heroku[web.1]: Starting process with command `cd build ; java $JAVA_OPTS -Xmx256m -Dgrails.env=prod -jar ../build/server/webapp-runner-*.jar --expand-war --port 6958 libs/*.war`
2021-03-18T13:36:45.077702+00:00 app[web.1]: Setting JAVA_TOOL_OPTIONS defaults based on dyno size. Custom settings will override them.
2021-03-18T13:36:45.079468+00:00 app[web.1]: Error: Unable to access jarfile ../build/server/webapp-runner-*.jar
2021-03-18T13:36:45.132836+00:00 heroku[web.1]: Process exited with status 1
2021-03-18T13:36:45.188970+00:00 heroku[web.1]: State changed from starting to crashed
2021-03-18T13:36:45.196945+00:00 heroku[web.1]: State changed from crashed to starting
2021-03-18T13:36:49.000000+00:00 app[api]: Build succeeded
2021-03-18T13:36:55.857264+00:00 heroku[web.1]: Starting process with command `cd build ; java $JAVA_OPTS -Xmx256m -Dgrails.env=prod -jar ../build/server/webapp-runner-*.jar --expand-war --port 25203 libs/*.war`
2021-03-18T13:36:58.306914+00:00 app[web.1]: Setting JAVA_TOOL_OPTIONS defaults based on dyno size. Custom settings will override them.
2021-03-18T13:36:58.309029+00:00 app[web.1]: Error: Unable to access jarfile ../build/server/webapp-runner-*.jar
2021-03-18T13:36:58.351061+00:00 heroku[web.1]: Process exited with status 1
2021-03-18T13:36:58.446560+00:00 heroku[web.1]: State changed from starting to crashed
2021-03-18T13:37:00.700022+00:00 heroku[router]: at=error code=H10 desc="App crashed" method=GET path="/" host=grails13fikambanana.herokuapp.com request_id=96a2f44c-eab6-4f76-98a6-2944938ec201 fwd="154.126.11.28" dyno= connect= service= status=503 bytes= protocol=https
2021-03-18T13:37:01.046359+00:00 heroku[router]: at=error code=H10 desc="App crashed" method=GET path="/robots.txt" host=grails13fikambanana.herokuapp.com request_id=cc04dfce-f302-4b8d-8ba5-af5c4125fd0e fwd="154.126.11.28" dyno= connect= service= status=503 bytes= protocol=https
2021-03-18T13:37:01.852585+00:00 heroku[router]: at=error code=H10 desc="App crashed" method=GET path="/robots.txt" host=grails13fikambanana.herokuapp.com request_id=9498ed50-ada6-45cf-a615-13fcdece6f6a fwd="154.126.11.28" dyno= connect= service= status=503 bytes= protocol=https
2021-03-18T13:37:02.024981+00:00 heroku[router]: at=error code=H10 desc="App crashed" method=GET path="/favicon.ico" host=grails13fikambanana.herokuapp.com request_id=d881f214-dd7d-47eb-aec4-c45ff6c4c033 fwd="154.126.11.28" dyno= connect= service= status=503 bytes= protocol=https
2021-03-18T13:37:11.151379+00:00 heroku[router]: at=error code=H10 desc="App crashed" method=GET path="/projet" host=grails13fikambanana.herokuapp.com request_id=035fd515-e763-44b3-9ae8-65bef6b479c8 fwd="154.126.11.28" dyno= connect= service= status=503 bytes= protocol=https
2021-03-18T13:37:11.821362+00:00 heroku[router]: at=error code=H10 desc="App crashed" method=GET path="/favicon.ico" host=grails13fikambanana.herokuapp.com request_id=476a0de2-bf01-4a0a-bb64-a4b6fad555f2 fwd="154.126.11.28" dyno= connect= service= status=503 bytes= protocol=https
2021-03-18T13:39:19.000000+00:00 app[api]: Build started by user mathiaskun40@gmail.com
2021-03-18T13:41:26.581977+00:00 app[api]: Release v5 created by user mathiaskun40@gmail.com
2021-03-18T13:41:26.581977+00:00 app[api]: Deploy a221cbdb by user mathiaskun40@gmail.com
2021-03-18T13:41:27.719143+00:00 heroku[web.1]: State changed from crashed to starting
2021-03-18T13:41:38.894993+00:00 heroku[web.1]: Starting process with command `cd build ; java $JAVA_OPTS -Xmx256m -Dgrails.env=prod -jar ../server/webapp-runner-*.jar --expand-war --port 28045 libs/*.war`
2021-03-18T13:41:40.973183+00:00 app[web.1]: Setting JAVA_TOOL_OPTIONS defaults based on dyno size. Custom settings will override them.
2021-03-18T13:41:40.974720+00:00 app[web.1]: Error: Unable to access jarfile ../server/webapp-runner-*.jar
2021-03-18T13:41:41.010916+00:00 heroku[web.1]: Process exited with status 1
2021-03-18T13:41:41.080166+00:00 heroku[web.1]: State changed from starting to crashed
2021-03-18T13:41:44.000000+00:00 app[api]: Build succeeded
2021-03-18T13:41:57.107727+00:00 heroku[router]: at=error code=H10 desc="App crashed" method=GET path="/" host=grails13fikambanana.herokuapp.com request_id=8ab3725d-761e-4efd-812b-647f33daabdd fwd="154.126.12.35" dyno= connect= service= status=503 bytes= protocol=https
2021-03-18T13:41:58.128607+00:00 heroku[router]: at=error code=H10 desc="App crashed" method=GET path="/favicon.ico" host=grails13fikambanana.herokuapp.com request_id=9fed18a0-56d7-40bf-b1bf-9a622a9a7456 fwd="154.126.12.35" dyno= connect= service= status=503 bytes= protocol=https
2021-03-18T13:42:05.713348+00:00 heroku[router]: at=error code=H10 desc="App crashed" method=GET path="/" host=grails13fikambanana.herokuapp.com request_id=da99605c-e56e-4cf7-88bc-dd870a174d46 fwd="154.126.12.35" dyno= connect= service= status=503 bytes= protocol=https
2021-03-18T13:42:07.075035+00:00 heroku[router]: at=error code=H10 desc="App crashed" method=GET path="/favicon.ico" host=grails13fikambanana.herokuapp.com request_id=5ba747f6-4c26-4cce-97e9-227c5c150b7d fwd="154.126.12.35" dyno= connect= service= status=503 bytes= protocol=https
2021-03-18T13:43:14.000000+00:00 app[api]: Build started by user mathiaskun40@gmail.com
2021-03-18T13:45:16.536413+00:00 app[api]: Release v6 created by user mathiaskun40@gmail.com
2021-03-18T13:45:16.536413+00:00 app[api]: Deploy acb9af81 by user mathiaskun40@gmail.com
2021-03-18T13:45:17.720171+00:00 heroku[web.1]: State changed from crashed to starting
2021-03-18T13:45:28.289703+00:00 heroku[web.1]: Starting process with command `cd build ; java $JAVA_OPTS -Xmx256m -D grails.env=prod -jar /server/webapp-runner-*.jar --expand-war --port 38120 libs/*.war`
2021-03-18T13:45:30.288488+00:00 app[web.1]: Setting JAVA_TOOL_OPTIONS defaults based on dyno size. Custom settings will override them.
2021-03-18T13:45:30.293228+00:00 app[web.1]: Picked up JAVA_TOOL_OPTIONS: -Xmx300m -Xss512k -XX:CICompilerCount=2 -Dfile.encoding=UTF-8
2021-03-18T13:45:30.384416+00:00 app[web.1]: Error: Could not find or load main class grails.env=prod
2021-03-18T13:45:30.430487+00:00 heroku[web.1]: Process exited with status 1
2021-03-18T13:45:30.562431+00:00 heroku[web.1]: State changed from starting to crashed
2021-03-18T13:45:34.000000+00:00 app[api]: Build succeeded
2021-03-18T13:47:03.323572+00:00 heroku[router]: at=error code=H10 desc="App crashed" method=GET path="/" host=grails13fikambanana.herokuapp.com request_id=8b0ca450-4e94-42e3-96c5-0c9976a87bc5 fwd="154.126.11.100" dyno= connect= service= status=503 bytes= protocol=https
2021-03-18T13:47:04.226392+00:00 heroku[router]: at=error code=H10 desc="App crashed" method=GET path="/favicon.ico" host=grails13fikambanana.herokuapp.com request_id=03abab02-3005-4403-98af-b7e7a4d63fd9 fwd="154.126.11.100" dyno= connect= service= status=503 bytes= protocol=https
2021-03-18T13:47:48.000000+00:00 app[api]: Build started by user mathiaskun40@gmail.com
2021-03-18T13:49:55.616125+00:00 app[api]: Deploy d595bedb by user mathiaskun40@gmail.com
2021-03-18T13:49:55.616125+00:00 app[api]: Release v7 created by user mathiaskun40@gmail.com
2021-03-18T13:49:56.705063+00:00 heroku[web.1]: State changed from crashed to starting
2021-03-18T13:50:11.875411+00:00 heroku[web.1]: Starting process with command `cd build ; java $JAVA_OPTS -Xmx256m -Dgrails.env=prod -jar /server/webapp-runner-*.jar --expand-war --port 32054 libs/*.war`
2021-03-18T13:50:12.000000+00:00 app[api]: Build succeeded
2021-03-18T13:50:15.368341+00:00 app[web.1]: Setting JAVA_TOOL_OPTIONS defaults based on dyno size. Custom settings will override them.
2021-03-18T13:50:15.370382+00:00 app[web.1]: Error: Unable to access jarfile /server/webapp-runner-*.jar
2021-03-18T13:50:15.438131+00:00 heroku[web.1]: Process exited with status 1
2021-03-18T13:50:15.520997+00:00 heroku[web.1]: State changed from starting to crashed
2021-03-18T13:50:15.525175+00:00 heroku[web.1]: State changed from crashed to starting
2021-03-18T13:50:27.183866+00:00 heroku[web.1]: Starting process with command `cd build ; java $JAVA_OPTS -Xmx256m -Dgrails.env=prod -jar /server/webapp-runner-*.jar --expand-war --port 48667 libs/*.war`
2021-03-18T13:50:30.107582+00:00 app[web.1]: Setting JAVA_TOOL_OPTIONS defaults based on dyno size. Custom settings will override them.
2021-03-18T13:50:30.109756+00:00 app[web.1]: Error: Unable to access jarfile /server/webapp-runner-*.jar
2021-03-18T13:50:30.157461+00:00 heroku[web.1]: Process exited with status 1
2021-03-18T13:50:30.270566+00:00 heroku[web.1]: State changed from starting to crashed
2021-03-18T13:51:14.390241+00:00 heroku[router]: at=error code=H10 desc="App crashed" method=GET path="/" host=grails13fikambanana.herokuapp.com request_id=17fcd11d-4f71-4d40-83ce-5de28558961f fwd="154.126.12.241" dyno= connect= service= status=503 bytes= protocol=https
2021-03-18T13:51:15.118378+00:00 heroku[router]: at=error code=H10 desc="App crashed" method=GET path="/favicon.ico" host=grails13fikambanana.herokuapp.com request_id=95a64326-996b-44df-9bc4-ce6aba611e0e fwd="154.126.12.241" dyno= connect= service= status=503 bytes= protocol=https
2021-03-18T13:56:51.000000+00:00 app[api]: Build started by user mathiaskun40@gmail.com
2021-03-18T13:59:00.737310+00:00 app[api]: Release v8 created by user mathiaskun40@gmail.com
2021-03-18T13:59:00.737310+00:00 app[api]: Deploy f0bb5753 by user mathiaskun40@gmail.com
2021-03-18T13:59:01.825906+00:00 heroku[web.1]: State changed from crashed to starting
2021-03-18T13:59:12.205105+00:00 heroku[web.1]: Starting process with command `cd build ; java $JAVA_OPTS -Xmx256m -D -jar /server/webapp-runner-*.jar --expand-war --port 45240 libs/*.war`
2021-03-18T13:59:13.711586+00:00 app[web.1]: Setting JAVA_TOOL_OPTIONS defaults based on dyno size. Custom settings will override them.
2021-03-18T13:59:13.712947+00:00 app[web.1]: Error: Unable to access jarfile /server/webapp-runner-*.jar
2021-03-18T13:59:13.769295+00:00 heroku[web.1]: Process exited with status 1
2021-03-18T13:59:13.840900+00:00 heroku[web.1]: State changed from starting to crashed
2021-03-18T13:59:22.000000+00:00 app[api]: Build succeeded
2021-03-18T14:00:04.047789+00:00 heroku[router]: at=error code=H10 desc="App crashed" method=GET path="/" host=grails13fikambanana.herokuapp.com request_id=6cbf0ddd-176b-4c35-9696-1e9190991bee fwd="154.126.12.39" dyno= connect= service= status=503 bytes= protocol=https
2021-03-18T14:00:05.230423+00:00 heroku[router]: at=error code=H10 desc="App crashed" method=GET path="/favicon.ico" host=grails13fikambanana.herokuapp.com request_id=1b0038d1-104c-4563-ac20-2d857a5afee3 fwd="154.126.12.39" dyno= connect= service= status=503 bytes= protocol=https
2021-03-18T14:24:50.000000+00:00 app[api]: Build started by user mathiaskun40@gmail.com
2021-03-18T14:26:27.196073+00:00 heroku[web.1]: State changed from crashed to starting
2021-03-18T14:26:41.633582+00:00 heroku[web.1]: Starting process with command `cd build ; java $JAVA_OPTS -Xmx256m -D -jar /server/webapp-runner-*.jar --expand-war --port 24247 libs/*.war`
2021-03-18T14:26:45.193539+00:00 app[web.1]: Setting JAVA_TOOL_OPTIONS defaults based on dyno size. Custom settings will override them.
2021-03-18T14:26:45.201889+00:00 app[web.1]: Error: Unable to access jarfile /server/webapp-runner-*.jar
2021-03-18T14:26:45.254732+00:00 heroku[web.1]: Process exited with status 1
2021-03-18T14:26:45.337239+00:00 heroku[web.1]: State changed from starting to crashed
2021-03-18T14:27:05.764567+00:00 app[api]: Deploy 77295bdb by user mathiaskun40@gmail.com
2021-03-18T14:27:05.764567+00:00 app[api]: Release v9 created by user mathiaskun40@gmail.com
2021-03-18T14:27:06.929706+00:00 heroku[web.1]: State changed from crashed to starting
2021-03-18T14:27:20.076539+00:00 heroku[web.1]: Starting process with command `cd build ; java $JAVA_OPTS -Xmx256m -Dgrails.env=prod -jar ../build/server/webapp-runner-*.jar --expand-war --port 23810 libs/*.war`
2021-03-18T14:27:22.849006+00:00 app[web.1]: Setting JAVA_TOOL_OPTIONS defaults based on dyno size. Custom settings will override them.
2021-03-18T14:27:22.852088+00:00 app[web.1]: Error: Unable to access jarfile ../build/server/webapp-runner-*.jar
2021-03-18T14:27:22.913245+00:00 heroku[web.1]: Process exited with status 1
2021-03-18T14:27:23.022639+00:00 heroku[web.1]: State changed from starting to crashed
2021-03-18T14:27:23.909634+00:00 heroku[router]: at=error code=H10 desc="App crashed" method=GET path="/" host=grails13fikambanana.herokuapp.com request_id=310de52c-a810-4414-96a6-79f268419eed fwd="154.126.12.179" dyno= connect= service= status=503 bytes= protocol=https
2021-03-18T14:27:24.478935+00:00 heroku[router]: at=error code=H10 desc="App crashed" method=GET path="/favicon.ico" host=grails13fikambanana.herokuapp.com request_id=f8f45ba4-07ab-4864-aceb-19d50268bd9f fwd="154.126.12.179" dyno= connect= service= status=503 bytes= protocol=https
2021-03-18T14:27:27.000000+00:00 app[api]: Build succeeded
2021-03-18T14:30:07.000000+00:00 app[api]: Build started by user mathiaskun40@gmail.com
2021-03-18T14:32:44.190248+00:00 app[api]: Release v10 created by user mathiaskun40@gmail.com
2021-03-18T14:32:44.190248+00:00 app[api]: Deploy 3fe0544a by user mathiaskun40@gmail.com
2021-03-18T14:32:45.716673+00:00 heroku[web.1]: State changed from crashed to starting
2021-03-18T14:32:58.597664+00:00 heroku[web.1]: Starting process with command `cd build ; java $JAVA_OPTS -Xmx256m -Dgrails.env=prod -jar server/jetty-runner.jar --expand-war --port 15508 target/*.war`
2021-03-18T14:33:01.274433+00:00 app[web.1]: Setting JAVA_TOOL_OPTIONS defaults based on dyno size. Custom settings will override them.
2021-03-18T14:33:01.275796+00:00 app[web.1]: Error: Unable to access jarfile server/jetty-runner.jar
2021-03-18T14:33:01.315783+00:00 heroku[web.1]: Process exited with status 1
2021-03-18T14:33:01.392632+00:00 heroku[web.1]: State changed from starting to crashed
2021-03-18T14:33:16.000000+00:00 app[api]: Build succeeded
2021-03-18T14:35:51.000000+00:00 app[api]: Build started by user mathiaskun40@gmail.com
2021-03-18T14:38:00.376390+00:00 app[api]: Release v11 created by user mathiaskun40@gmail.com
2021-03-18T14:38:00.376390+00:00 app[api]: Deploy 38831d36 by user mathiaskun40@gmail.com
2021-03-18T14:38:01.778396+00:00 heroku[web.1]: State changed from crashed to starting
2021-03-18T14:38:13.239537+00:00 heroku[web.1]: Starting process with command `cd build ; java $JAVA_OPTS -Xmx256m -D -jar server/webapp-runner-*.jar --expand-war --port 17016 libs/*.war`
2021-03-18T14:38:15.165395+00:00 app[web.1]: Setting JAVA_TOOL_OPTIONS defaults based on dyno size. Custom settings will override them.
2021-03-18T14:38:15.166928+00:00 app[web.1]: Error: Unable to access jarfile server/webapp-runner-*.jar
2021-03-18T14:38:15.215274+00:00 heroku[web.1]: Process exited with status 1
2021-03-18T14:38:15.268523+00:00 heroku[web.1]: State changed from starting to crashed
2021-03-18T14:38:15.276257+00:00 heroku[web.1]: State changed from crashed to starting
2021-03-18T14:38:22.000000+00:00 app[api]: Build succeeded
2021-03-18T14:38:28.004898+00:00 heroku[web.1]: Starting process with command `cd build ; java $JAVA_OPTS -Xmx256m -D -jar server/webapp-runner-*.jar --expand-war --port 54491 libs/*.war`
2021-03-18T14:38:30.296553+00:00 app[web.1]: Setting JAVA_TOOL_OPTIONS defaults based on dyno size. Custom settings will override them.
2021-03-18T14:38:30.298006+00:00 app[web.1]: Error: Unable to access jarfile server/webapp-runner-*.jar
2021-03-18T14:38:30.352793+00:00 heroku[web.1]: Process exited with status 1
2021-03-18T14:38:30.449385+00:00 heroku[web.1]: State changed from starting to crashed
2021-03-18T14:47:05.000000+00:00 app[api]: Build started by user mathiaskun40@gmail.com
2021-03-18T14:50:06.383922+00:00 app[api]: Deploy 30904ee0 by user mathiaskun40@gmail.com
2021-03-18T14:50:06.383922+00:00 app[api]: Release v12 created by user mathiaskun40@gmail.com
2021-03-18T14:50:07.611106+00:00 heroku[web.1]: State changed from crashed to starting
2021-03-18T14:50:19.423479+00:00 heroku[web.1]: Starting process with command `cd build ; java -Dgrails.env=prod -jar ../build/server/webapp-runner-*.jar --expand-war --port 11938 libs/*.war`
2021-03-18T14:50:21.826442+00:00 app[web.1]: Setting JAVA_TOOL_OPTIONS defaults based on dyno size. Custom settings will override them.
2021-03-18T14:50:21.828512+00:00 app[web.1]: Error: Unable to access jarfile ../build/server/webapp-runner-*.jar
2021-03-18T14:50:21.875299+00:00 heroku[web.1]: Process exited with status 1
2021-03-18T14:50:21.975248+00:00 heroku[web.1]: State changed from starting to crashed
2021-03-18T14:50:21.995799+00:00 heroku[web.1]: State changed from crashed to starting
2021-03-18T14:50:29.000000+00:00 app[api]: Build succeeded
2021-03-18T14:50:34.433225+00:00 heroku[web.1]: Starting process with command `cd build ; java -Dgrails.env=prod -jar ../build/server/webapp-runner-*.jar --expand-war --port 3474 libs/*.war`
2021-03-18T14:50:37.027269+00:00 app[web.1]: Setting JAVA_TOOL_OPTIONS defaults based on dyno size. Custom settings will override them.
2021-03-18T14:50:37.028786+00:00 app[web.1]: Error: Unable to access jarfile ../build/server/webapp-runner-*.jar
2021-03-18T14:50:37.100722+00:00 heroku[web.1]: Process exited with status 1
2021-03-18T14:50:37.186518+00:00 heroku[web.1]: State changed from starting to crashed
2021-03-18T14:51:06.000000+00:00 app[api]: Build started by user mathiaskun40@gmail.com
2021-03-18T14:53:26.591308+00:00 app[api]: Deploy 975ec709 by user mathiaskun40@gmail.com
2021-03-18T14:53:26.591308+00:00 app[api]: Release v13 created by user mathiaskun40@gmail.com
2021-03-18T14:53:27.746629+00:00 heroku[web.1]: State changed from crashed to starting
2021-03-18T14:53:43.269030+00:00 heroku[web.1]: Starting process with command `cd build ; java -Dgrails.env=prod -jar /server/webapp-runner-*.jar --expand-war --port 48482 libs/*.war`
2021-03-18T14:53:46.773981+00:00 app[web.1]: Setting JAVA_TOOL_OPTIONS defaults based on dyno size. Custom settings will override them.
2021-03-18T14:53:46.779959+00:00 app[web.1]: Error: Unable to access jarfile /server/webapp-runner-*.jar
2021-03-18T14:53:46.870062+00:00 heroku[web.1]: Process exited with status 1
2021-03-18T14:53:46.966923+00:00 heroku[web.1]: State changed from starting to crashed
2021-03-18T14:53:52.000000+00:00 app[api]: Build succeeded
2021-03-18T14:55:57.000000+00:00 app[api]: Build started by user mathiaskun40@gmail.com
2021-03-18T14:58:14.487917+00:00 app[api]: Deploy 3084a50d by user mathiaskun40@gmail.com
2021-03-18T14:58:14.487917+00:00 app[api]: Release v14 created by user mathiaskun40@gmail.com
2021-03-18T14:58:15.781564+00:00 heroku[web.1]: State changed from crashed to starting
2021-03-18T14:58:29.341511+00:00 heroku[web.1]: Starting process with command `java -jar build/server/webapp-runner-*.jar --expand-war --port 16018 libs/*.war`
2021-03-18T14:58:32.632334+00:00 app[web.1]: Setting JAVA_TOOL_OPTIONS defaults based on dyno size. Custom settings will override them.
2021-03-18T14:58:32.633669+00:00 app[web.1]: Error: Unable to access jarfile build/server/webapp-runner-*.jar
2021-03-18T14:58:32.692548+00:00 heroku[web.1]: Process exited with status 1
2021-03-18T14:58:32.767815+00:00 heroku[web.1]: State changed from starting to crashed
2021-03-18T14:58:51.000000+00:00 app[api]: Build succeeded
2021-03-18T15:00:25.000000+00:00 app[api]: Build started by user mathiaskun40@gmail.com
2021-03-18T15:02:47.896641+00:00 app[api]: Release v15 created by user mathiaskun40@gmail.com
2021-03-18T15:02:47.896641+00:00 app[api]: Deploy 5e291b6c by user mathiaskun40@gmail.com
2021-03-18T15:02:49.149611+00:00 heroku[web.1]: State changed from crashed to starting
2021-03-18T15:03:06.024193+00:00 heroku[web.1]: Starting process with command `java -jar ./build/server/webapp-runner-*.jar --expand-war --port 14803 libs/*.war`
2021-03-18T15:03:07.000000+00:00 app[api]: Build succeeded
2021-03-18T15:03:09.075803+00:00 app[web.1]: Setting JAVA_TOOL_OPTIONS defaults based on dyno size. Custom settings will override them.
2021-03-18T15:03:09.079217+00:00 app[web.1]: Error: Unable to access jarfile ./build/server/webapp-runner-*.jar
2021-03-18T15:03:09.133839+00:00 heroku[web.1]: Process exited with status 1
2021-03-18T15:03:09.198263+00:00 heroku[web.1]: State changed from starting to crashed
2021-03-18T15:03:09.210308+00:00 heroku[web.1]: State changed from crashed to starting
2021-03-18T15:03:20.564345+00:00 heroku[web.1]: Starting process with command `java -jar ./build/server/webapp-runner-*.jar --expand-war --port 14847 libs/*.war`
2021-03-18T15:03:22.722299+00:00 app[web.1]: Setting JAVA_TOOL_OPTIONS defaults based on dyno size. Custom settings will override them.
2021-03-18T15:03:22.726673+00:00 app[web.1]: Error: Unable to access jarfile ./build/server/webapp-runner-*.jar
2021-03-18T15:03:22.786633+00:00 heroku[web.1]: Process exited with status 1
2021-03-18T15:03:22.857352+00:00 heroku[web.1]: State changed from starting to crashed
2021-03-18T15:21:36.000000+00:00 app[api]: Build started by user mathiaskun40@gmail.com
2021-03-18T15:24:09.884006+00:00 app[api]: Deploy cf49e47f by user mathiaskun40@gmail.com
2021-03-18T15:24:09.884006+00:00 app[api]: Release v16 created by user mathiaskun40@gmail.com
2021-03-18T15:24:11.145154+00:00 heroku[web.1]: State changed from crashed to starting
2021-03-18T15:24:26.846500+00:00 heroku[web.1]: Starting process with command `cd build; java $JAVA_OPTS -Xmx256m -Dgrails.env=prod cp "server/*" webapp.runner.launch.Main --port 58613 ../build/libs/*.war`
2021-03-18T15:24:30.001714+00:00 app[web.1]: Setting JAVA_TOOL_OPTIONS defaults based on dyno size. Custom settings will override them.
2021-03-18T15:24:30.006672+00:00 app[web.1]: Picked up JAVA_TOOL_OPTIONS: -Xmx300m -Xss512k -XX:CICompilerCount=2 -Dfile.encoding=UTF-8
2021-03-18T15:24:30.137436+00:00 app[web.1]: Error: Could not find or load main class cp
2021-03-18T15:24:30.248806+00:00 heroku[web.1]: Process exited with status 1
2021-03-18T15:24:30.315182+00:00 heroku[web.1]: State changed from starting to crashed
2021-03-18T15:24:30.333828+00:00 heroku[web.1]: State changed from crashed to starting
2021-03-18T15:24:33.000000+00:00 app[api]: Build succeeded
2021-03-18T15:24:42.980536+00:00 heroku[web.1]: Starting process with command `cd build; java $JAVA_OPTS -Xmx256m -Dgrails.env=prod cp "server/*" webapp.runner.launch.Main --port 26061 ../build/libs/*.war`
2021-03-18T15:24:45.494868+00:00 app[web.1]: Setting JAVA_TOOL_OPTIONS defaults based on dyno size. Custom settings will override them.
2021-03-18T15:24:45.498486+00:00 app[web.1]: Picked up JAVA_TOOL_OPTIONS: -Xmx300m -Xss512k -XX:CICompilerCount=2 -Dfile.encoding=UTF-8
2021-03-18T15:24:45.759133+00:00 app[web.1]: Error: Could not find or load main class cp
2021-03-18T15:24:45.809339+00:00 heroku[web.1]: Process exited with status 1
2021-03-18T15:24:45.884480+00:00 heroku[web.1]: State changed from starting to crashed
2021-03-18T15:30:19.000000+00:00 app[api]: Build started by user mathiaskun40@gmail.com
2021-03-18T15:32:20.154971+00:00 app[api]: Release v17 created by user mathiaskun40@gmail.com
2021-03-18T15:32:20.154971+00:00 app[api]: Deploy 7cbd0129 by user mathiaskun40@gmail.com
2021-03-18T15:32:21.409851+00:00 heroku[web.1]: State changed from crashed to starting
2021-03-18T15:32:35.895717+00:00 heroku[web.1]: Starting process with command `cd build; java $JAVA_OPTS -Xmx256m -Dgrails.env=prod -cp "server/*" webapp.runner.launch.Main --port 55177 ../build/libs/*.war`
2021-03-18T15:32:39.000000+00:00 app[api]: Build succeeded
2021-03-18T15:32:39.028842+00:00 app[web.1]: Setting JAVA_TOOL_OPTIONS defaults based on dyno size. Custom settings will override them.
2021-03-18T15:32:39.048752+00:00 app[web.1]: Picked up JAVA_TOOL_OPTIONS: -Xmx300m -Xss512k -XX:CICompilerCount=2 -Dfile.encoding=UTF-8
2021-03-18T15:32:39.493941+00:00 app[web.1]: Error: Could not find or load main class webapp.runner.launch.Main
2021-03-18T15:32:39.594946+00:00 heroku[web.1]: Process exited with status 1
2021-03-18T15:32:39.670334+00:00 heroku[web.1]: State changed from starting to crashed
2021-03-18T15:44:36.000000+00:00 app[api]: Build started by user mathiaskun40@gmail.com
2021-03-18T15:45:48.550184+00:00 heroku[web.1]: State changed from crashed to starting
2021-03-18T15:46:02.348465+00:00 heroku[web.1]: Starting process with command `cd build; java $JAVA_OPTS -Xmx256m -Dgrails.env=prod -cp "server/*" webapp.runner.launch.Main --port 48115 ../build/libs/*.war`
2021-03-18T15:46:05.632597+00:00 app[web.1]: Setting JAVA_TOOL_OPTIONS defaults based on dyno size. Custom settings will override them.
2021-03-18T15:46:05.636622+00:00 app[web.1]: Picked up JAVA_TOOL_OPTIONS: -Xmx300m -Xss512k -XX:CICompilerCount=2 -Dfile.encoding=UTF-8
2021-03-18T15:46:05.782955+00:00 app[web.1]: Error: Could not find or load main class webapp.runner.launch.Main
2021-03-18T15:46:05.867003+00:00 heroku[web.1]: Process exited with status 1
2021-03-18T15:46:05.978362+00:00 heroku[web.1]: State changed from starting to crashed
2021-03-18T15:47:23.241167+00:00 app[api]: Release v18 created by user mathiaskun40@gmail.com
2021-03-18T15:47:23.241167+00:00 app[api]: Deploy 17894658 by user mathiaskun40@gmail.com
2021-03-18T15:47:24.813387+00:00 heroku[web.1]: State changed from crashed to starting
2021-03-18T15:47:36.267754+00:00 heroku[web.1]: Starting process with command `cd build; java $JAVA_OPTS -Xmx256m -Dgrails.env=prod -cp "server/*" webapp.runner.launch.Main --port 53159 ../build/libs/*.war`
2021-03-18T15:47:39.046720+00:00 app[web.1]: Setting JAVA_TOOL_OPTIONS defaults based on dyno size. Custom settings will override them.
2021-03-18T15:47:39.050678+00:00 app[web.1]: Picked up JAVA_TOOL_OPTIONS: -Xmx300m -Xss512k -XX:CICompilerCount=2 -Dfile.encoding=UTF-8
2021-03-18T15:47:39.234579+00:00 app[web.1]: Error: Could not find or load main class webapp.runner.launch.Main
2021-03-18T15:47:39.285966+00:00 heroku[web.1]: Process exited with status 1
2021-03-18T15:47:39.439624+00:00 heroku[web.1]: State changed from starting to crashed
2021-03-18T15:47:42.000000+00:00 app[api]: Build succeeded
2021-03-18T16:00:28.244637+00:00 heroku[web.1]: State changed from crashed to starting
2021-03-18T16:00:41.624555+00:00 heroku[web.1]: Starting process with command `cd build; java $JAVA_OPTS -Xmx256m -Dgrails.env=prod -cp "server/*" webapp.runner.launch.Main --port 25143 ../build/libs/*.war`
2021-03-18T16:00:43.982529+00:00 app[web.1]: Setting JAVA_TOOL_OPTIONS defaults based on dyno size. Custom settings will override them.
2021-03-18T16:00:43.987135+00:00 app[web.1]: Picked up JAVA_TOOL_OPTIONS: -Xmx300m -Xss512k -XX:CICompilerCount=2 -Dfile.encoding=UTF-8
2021-03-18T16:00:44.085372+00:00 app[web.1]: Error: Could not find or load main class webapp.runner.launch.Main
2021-03-18T16:00:44.163173+00:00 heroku[web.1]: Process exited with status 1
2021-03-18T16:00:44.266675+00:00 heroku[web.1]: State changed from starting to crashed
2021-03-18T16:36:34.000000+00:00 app[api]: Build started by user mathiaskun40@gmail.com
2021-03-18T16:38:06.510329+00:00 heroku[web.1]: State changed from crashed to starting
2021-03-18T16:38:22.262875+00:00 heroku[web.1]: Starting process with command `cd build; java $JAVA_OPTS -Xmx256m -Dgrails.env=prod -cp "server/*" webapp.runner.launch.Main --port 8638 ../build/libs/*.war`
2021-03-18T16:38:24.960784+00:00 app[web.1]: Setting JAVA_TOOL_OPTIONS defaults based on dyno size. Custom settings will override them.
2021-03-18T16:38:24.965179+00:00 app[web.1]: Picked up JAVA_TOOL_OPTIONS: -Xmx300m -Xss512k -XX:CICompilerCount=2 -Dfile.encoding=UTF-8
2021-03-18T16:38:25.272315+00:00 app[web.1]: Error: Could not find or load main class webapp.runner.launch.Main
2021-03-18T16:38:25.366553+00:00 heroku[web.1]: Process exited with status 1
2021-03-18T16:38:25.468439+00:00 heroku[web.1]: State changed from starting to crashed
2021-03-18T16:38:47.793923+00:00 app[api]: Deploy d00d3485 by user mathiaskun40@gmail.com
2021-03-18T16:38:47.793923+00:00 app[api]: Release v19 created by user mathiaskun40@gmail.com
2021-03-18T16:38:48.960114+00:00 heroku[web.1]: State changed from crashed to starting
2021-03-18T16:39:04.031410+00:00 heroku[web.1]: Starting process with command `cd build; java $JAVA_OPTS -Xmx256m -Dgrails.env=prod -jar server/*.jar --port 32882 ../build/libs/*.war`
2021-03-18T16:39:06.000000+00:00 app[api]: Build succeeded
2021-03-18T16:39:06.275160+00:00 app[web.1]: Setting JAVA_TOOL_OPTIONS defaults based on dyno size. Custom settings will override them.
2021-03-18T16:39:06.276947+00:00 app[web.1]: Error: Unable to access jarfile server/*.jar
2021-03-18T16:39:06.332186+00:00 heroku[web.1]: Process exited with status 1
2021-03-18T16:39:06.419443+00:00 heroku[web.1]: State changed from starting to crashed
JAVA_HOME=/Library/Java/JavaVirtualMachines/adoptopenjdk-8.jdk/Contents/Home ./gradlew build